565750 565800 222
866672 866722 233
363937 363987 198
668135 668185 230
555101 555151 346
326606 326656 185
284271 284321 252
875472 875522 264
363622 363672 317
899848 899898 233
213337 213387 187
631634 631684 266
244320 244370 226
823669 823719 375
619177 619227 310
32162 32212 148
980460 980510 259
365092 365142 180
361333 361383 286
365040 365090 198
861509 861559 326
821907 821957 207
314161 314211 234
776057 776107 256
34677 34727 280
704805 704855 305
115443 115493 230
713707 713757 274
412063 412113 250
935420 935470 352
737410 737460 318
336746 336796 260
344054 344104 198
917645 917695 233
128039 128089 194
696520 696570 230
567295 567345 359
344540 344590 273
286598 286648 221
539702 539752 302
204257 204307 311
605040 605090 235
895988 896038 264
683057 683107 199
993004 993054 246
31000 31050 179
147030 147080 189
269133 269183 239
344919 344969 198
550202 550252 209
540058 540108 209
442811 442861 263
960165 960215 233
572242 572292 266
104782 104832 155
893132 893182 264
710034 710084 305
815241 815291 357
26674 26724 215
313284 313334 216
784864 784914 225
571711 571761 191
86119 86169 258
763049 763099 163
61909 61959 211
499368 499418 227
89494 89544 240
381966 382016 149
675184 675234 222
605886 605936 222
22195 22245 207
897426 897476 233
570867 570917 284
21808 21858 194
240448 240498 244
998347 998397 246
694547 694597 323
984505 984555 259
424969 425019 206
390698 390748 224
816355 816405 220
123264 123314 287
803056 803106 207
800797 800847 238
506507 506557 271
201347 201397 267
960001 960051 202
209504 209554 218
108117 108167 186
99827 99877 204
302058 302108 203
583189 583239 191
442512 442562 294
851513 851563 344
763767 763817 300
150642 150692 264
692971 693021 274
223721 223771 218
615082 615132 235
646853 646903 217
593441 593491 266
369330 369380 242
747534 747584 256
315271 315321 247
659820 659870 217
232859 232909 200
837753 837803 525
73784 73834 232
644101 644151 217
145957 146007 220
600868 600918 297
918316 918366 202
609149 609199 310
747522 747572 256
136925 136975 313
992466 992516 197
112892 112942 261
482267 482317 245
991182 991232 277
931651 931701 202
795707 795757 225
772813 772863 393
290792 290842 296
212487 212537 205
73769 73819 232
906858 906908 246
131628 131678 269
610637 610687 235
532841 532891 209
142995 143045 282
35565 35615 218
348323 348373 335
330803 330853 185
574511 574561 178
814612 814662 238
222247 222297 143
190104 190154 285
825151 825201 300
876312 876362 251
576239 576289 253
353530 353580 198
270868 270918 208
78236 78286 276
497240 497290 227
584869 584919 191
128891 128941 212
678029 678079 261
308315 308365 234
555170 555220 240
739683 739733 287
210778 210828 249
860340 860390 220
27768 27818 259
200630 200680 236
853854 853904 238
233674 233724 244
998269 998319 277
792616 792666 238
65406 65456 162
756360 756410 256
671284 671334 186
429747 429797 281
862134 862184 295
783027 783077 225
112756 112806 230
747503 747553 362
441015 441065 188
640852 640902 235
459496 459546 201
36831 36881 187
287531 287581 208
362776 362826 224
214025 214075 280
498485 498535 258
784293 784343 269
425338 425388 219
567870 567920 178
542899 542949 271
643067 643117 248
731097 731147 225
302586 302636 190
88172 88222 271
724439 724489 243
861987 862037 326
232847 232897 200
289165 289215 234
11010 11060 193
987998 988048 290
952939 952989 277
214090 214140 293
768803 768853 256
686689 686739 230
262626 262676 239
120940 120990 243
752743 752793 256
885278 885328 220
184620 184670 254
719850 719900 349
935624 935674 202
135949 135999 207
