356665 213131 443
579541 912916 525
857366 65750 525
939604 414266 525
280603 198229 443
571340 646907 509
1060 878170 525
113757 885345 525
848714 837498 525
151700 338084 443
473989 36811 449
819731 306983 509
528909 689633 509
285085 337868 389
233189 418870 449
872788 587994 525
47932 221166 386
101902 272823 443
903686 207152 525
449126 281684 449
522880 465742 470
341484 383029 441
838844 153760 525
866297 153440 525
721747 462929 509
760668 209589 509
82140 847830 525
908546 255156 525
777026 835038 468
707223 769827 468
90659 494672 449
323483 549061 470
457383 211524 449
519457 451084 470
671388 340773 509
284060 869814 525
217030 459560 449
346929 584832 470
501633 835416 509
940453 137213 525
778236 383482 509
345909 859873 525
546687 822404 509
594879 738954 509
964116 821493 525
897098 213667 525
150872 99462 375
387536 254964 441
231639 37586 443
565498 902831 525
772784 295298 509
269308 918368 525
703123 459294 509
315581 153709 443
827345 927921 525
35909 937758 525
308698 171 443
238555 364768 441
690848 43568 509
344513 255019 407
141109 937497 525
117183 648334 509
124026 328679 443
134982 947622 525
858961 922220 476
133738 287111 443
172306 230685 443
941764 200450 525
160648 604533 470
527775 993511 525
422647 617344 470
996862 145301 525
757186 220081 509
184795 780675 509
105993 197409 383
357839 788817 509
331030 509244 449
187337 870578 525
712541 329053 509
143129 402645 443
120310 793188 509
836791 330059 509
667230 707963 504
803778 793255 468
276704 733912 509
86798 915005 525
658180 354020 509
959540 830095 525
1749 168994 383
550674 69147 470
709936 44022 509
511384 392203 449
644313 622551 509
982058 38453 525
256436 444841 449
738151 496334 509
715606 994948 525
697397 469489 509
784970 85435 509
705357 693811 504
577749 805557 509
52639 740480 509
597161 509487 470
419358 299475 449
221363 885805 525
238955 565564 470
762986 444530 509
138397 347685 443
123944 269593 443
470010 134881 449
750470 500424 509
918166 852045 476
183317 264192 443
230022 263539 443
886645 99455 525
448596 967296 525
37521 447943 449
686851 75183 509
370442 371645 348
515374 936189 525
967473 474220 525
147511 397659 443
153272 667490 509
139038 409640 443
691950 46551 509
286490 887941 525
539318 94446 470
589392 473843 470
146942 259587 443
867887 749434 525
131963 992439 525
60068 940569 525
996843 427966 525
424406 447814 400
542838 98726 470
582197 964707 525
530166 402312 470
729186 327734 509
325962 827888 509
710501 479059 509
547261 251491 470
837358 627981 504
727376 454311 509
56797 640623 509
853420 223844 525
238471 821882 509
234702 531636 470
422843 825624 509
58542 181819 383
344767 898890 525
768492 9455 509
231259 191425 443
173799 740527 509
984411 600357 525
867068 62635 525
241474 63972 443
393545 131758 443
387176 278045 441
403283 332065 441
882582 936208 476
601241 617843 447
840694 675289 525
168393 607560 470
988978 897262 507
721512 788775 468
667850 390746 509
892654 672369 525
628144 173691 509
123342 305025 443
794589 79995 509
458240 410252 418
327725 87772 443
140881 297997 443
900580 525180 525
443936 971652 525
860067 700203 525
294519 906031 525
403201 550373 470
309825 539039 470
404870 313205 441
425801 891076 525
4464 788492 509
489624 127808 449
839496 159810 525
708369 159976 509
29360 428782 449
974980 994001 427
798898 187820 509
227135 96267 386
516425 451865 470
668299 984403 525
257102 275262 407
79343 855061 525
688486 379963 509
872531 662414 525
72620 989908 525
785885 853982 525
530748 699677 509
327246 206159 443
160377 336675 443
