759793 120293 509
97817 225562 386
288843 456713 449
163527 651152 509
646475 430923 509
52616 703111 509
567518 63181 470
194407 153243 383
988185 216639 525
435901 109969 449
421624 456205 418
397578 811025 509
122667 88629 354
315319 1106 443
379241 32342 443
394585 227488 443
250855 197581 443
921427 683465 525
337005 100440 443
526918 610141 452
183234 938628 525
792142 194103 509
419967 325748 449
691041 242670 509
777784 839484 525
361084 612895 470
398917 175577 443
22709 413394 449
166319 215241 373
862067 1059 525
62085 595786 470
203166 624549 470
818137 298808 509
366308 509296 449
305176 54554 443
617359 161716 470
540400 607523 452
252670 784226 509
943016 320510 525
709876 574550 509
121500 106165 354
451053 53000 449
165385 787571 509
338966 718385 509
793986 93338 509
145742 855388 525
517218 856115 525
849714 572662 525
705187 240586 509
542400 440788 470
451572 204979 449
768248 265021 509
110423 903232 525
419823 7263 449
308572 71978 443
644752 477252 509
25471 960481 525
958873 619297 525
16156 767476 509
471540 334608 449
981577 192816 525
338032 715692 509
414089 476334 444
511291 778486 509
232993 234068 368
817661 937108 525
167348 876281 525
512031 668968 509
13683 804129 509
762375 89583 509
188673 654812 509
136772 263896 443
246272 538531 470
171155 265594 443
624923 388282 470
836620 24850 509
640464 296830 509
667377 469047 509
599856 766523 509
945107 416815 525
964765 391826 525
826249 760526 468
425685 899279 525
954072 648544 525
902965 798508 525
106423 179097 383
482195 310245 449
758819 889387 525
239267 82198 443
610909 13644 470
484616 574150 470
796781 535853 509
314947 729870 509
798190 127041 509
745500 816863 468
578005 588899 434
481267 428927 444
791534 643400 504
30384 719781 509
545005 241802 470
685648 318186 509
178424 577824 470
742111 137849 509
492536 291341 449
17948 319406 443
688056 119007 509
881861 62369 525
945400 889850 507
696982 875794 525
622945 134430 470
753690 167320 509
524707 419777 470
888983 698993 525
585506 690793 509
440914 167629 449
203321 187070 360
507362 35439 449
924821 385639 525
243247 809080 509
815263 626396 504
845441 222608 525
905585 370634 525
676817 353475 509
715842 778493 468
821835 935524 525
601326 171844 470
449933 737033 509
50510 801594 509
450429 163820 449
359907 300616 441
603333 894575 525
680202 703180 442
358132 465259 449
268260 792225 509
48714 450092 449
739483 45520 509
287873 952618 525
131455 351155 443
317312 346147 441
177348 627306 509
414359 387289 449
784325 594400 509
510940 990308 525
936875 352114 525
325499 764179 509
575255 301565 470
447649 341021 449
783000 517311 509
472886 799340 509
44991 877060 525
353293 536706 470
320390 984251 525
552255 544792 452
15780 257454 443
579903 91805 470
570774 208411 470
350815 41103 443
371863 663101 509
666052 819514 504
900407 974881 507
187653 799974 509
522177 302338 470
89946 950135 525
499898 540597 470
184872 312528 443
944986 809367 525
168513 750334 509
193381 878287 525
466188 418698 444
146211 887480 525
696117 356221 509
245455 126378 443
386386 592813 470
259593 469572 449
285176 423907 449
963307 589631 525
830902 379309 509
935909 570527 525
153588 172474 383
244061 848786 525
368353 814526 509
912791 574033 525
673007 348177 509
365394 804277 509
659356 702900 442
725142 137542 509
9693 505714 449
545949 183440 470
709525 896520 525
866616 420145 525
921437 939430 476
937201 758204 525
993724 306535 525
185875 829391 509
921142 549086 525
872502 855723 432
121203 553536 470
935613 702655 525
479757 931660 525
742961 801505 468
854784 896758 445
435579 186621 449
349128 482442 449
962639 66906 525
680875 336764 509
349864 823737 509
704002 96371 509
504732 326510 449
813852 445218 509
980040 611055 525
508650 900600 525
929010 311562 525
794323 723316 468
821442 541514 509
635676 146938 509
779881 407561 509
485265 820608 509
259326 541073 470
449018 966971 525
842857 390464 525
416180 167590 449
755228 282670 509
141345 294329 443
652538 491808 509
660981 686735 442
452874 731217 509
105392 15683 351
972598 115114 525
310314 715849 509
535598 965740 525
308017 338154 384
635529 406033 509
671908 849448 525
757556 70275 509
163895 927965 525
124715 329073 443
855708 86726 525
166808 477123 449
823326 612041 509
216162 926712 525
737820 29745 509
917709 18326 525
887518 378998 525
533481 331389 470
961348 637443 525
615233 599918 447
233769 64296 443
862549 700864 525
749516 412972 509
627571 779125 504
383823 797976 509
48992 901026 525
335091 70187 443
394221 178954 443
829711 718098 468
389137 910051 525
262479 726994 509
193317 263832 443
276729 589501 470
538979 366092 470
391167 310948 441
597794 372931 470
485010 338436 449
188432 949138 525
504023 11099 449
520318 656135 509
882702 748696 525
552476 694163 509
940636 415447 525
956326 128833 525
994979 51418 525
727766 934130 525
339725 866122 525
6712 187381 383
105488 480313 449
603144 618506 447
430799 822610 509
274061 7357 443
589916 328979 470
450587 85764 449
541737 953049 525
544100 602044 452
960874 841093 507
888816 124932 525
76097 43578 340
619166 479526 470
729038 650428 504
969546 75323 525
517694 405690 470
917848 602791 525
39016 235815 443
357121 883272 525
909072 191511 525
348694 980118 525
479578 393417 449
375822 233651 441
66484 379806 443
309104 151116 443
262586 242930 363
199067 208681 373
