571840 811020 509
698860 686140 442
122389 97386 354
102207 461467 449
31053 38806 324
969671 229494 525
663659 283171 509
457094 564646 470
273199 467132 449
610274 635447 509
862589 466804 525
486328 127254 449
482848 291587 449
333775 534369 470
89341 123402 354
147176 535220 470
619196 127722 470
125755 179775 383
5774 385444 443
754387 948532 525
324062 622298 470
10 50 112
1 50 112
941383 470615 525
654748 924592 525
538806 578244 452
162512 147495 383
499941 97750 449
930922 506685 525
531673 570649 452
551401 812098 509
528653 532116 377
822637 460838 509
393578 189862 443
339435 187847 443
887902 207480 525
720629 602269 509
117503 674163 509
648756 982498 525
288860 234760 407
92527 308417 443
302280 963054 525
841802 471140 525
89809 307182 443
762179 523200 509
731626 64653 509
786931 60100 509
798584 215489 509
462553 761759 509
498346 215841 449
206793 953978 525
356829 609244 470
264550 542289 470
219959 378266 443
280168 584092 470
214110 821504 509
739355 231627 509
45514 140157 354
622275 558665 447
928639 185705 525
338492 676034 509
600804 989528 525
120715 255728 443
834673 341797 509
533444 713928 509
395379 824877 509
400592 861314 525
399210 742005 509
484655 773597 509
95637 12886 351
611545 19869 470
465554 805866 509
937752 484846 525
706072 222114 509
866448 260383 525
715828 193482 509
959688 289228 525
845132 276078 525
181395 172778 365
748578 218407 509
35601 356789 443
652068 81780 509
464972 924625 525
606174 613056 403
537424 218573 470
823190 343384 509
778394 622283 509
213710 388447 443
8124 607398 470
601119 845263 525
167888 771243 509
621950 376072 470
51160 274557 443
844864 807535 525
758044 132578 509
900178 179432 525
287929 699934 509
347181 781777 509
542793 827083 509
329011 114307 443
458489 781426 509
576622 734555 509
838639 152168 525
782315 275764 509
416514 600202 470
969852 134431 525
821768 937264 525
97459 870821 525
205638 620821 470
348287 489851 449
738558 144091 509
708400 377953 509
645370 948223 525
208149 616342 470
183718 406687 443
964245 971406 458
5894 794959 509
605720 899984 525
206175 560512 470
774458 952856 525
442986 999162 525
301759 932308 525
61995 196671 383
815726 465768 509
863544 88532 525
817447 515782 509
110949 151795 375
454296 172231 449
966301 287201 525
542954 79597 470
252859 31504 443
130768 604454 470
544490 265357 470
67730 457540 449
453333 35222 449
759941 615330 509
702818 927665 525
109820 358721 443
809918 198434 509
459072 468370 444
940070 833872 525
169817 513529 470
508209 109594 449
852528 685492 525
59571 313995 443
561857 599405 434
982524 872614 507
95294 824231 509
98116 23602 351
849244 354769 525
263621 604720 470
559989 737102 509
734777 434158 509
212498 251891 443
401224 70252 443
775240 388146 509
29150 772100 509
171472 774077 509
448369 856713 525
110462 140201 349
161238 544435 470
360017 532731 470
854023 954803 507
805828 554206 509
50916 357803 443
340333 11866 443
177766 252511 443
1242 741558 509
623486 702799 509
248576 612842 470
256647 762898 509
596207 692 470
940431 708079 525
816732 908576 525
598879 455166 470
818294 128588 509
130971 460661 449
811644 370350 509
35184 348298 443
693955 918575 525
726886 687910 504
909854 988280 507
529548 43998 470
920349 82062 525
668883 734375 504
40010 499713 449
227179 487723 449
482190 484101 351
879300 655907 525
945776 240482 525
950182 428066 525
588003 777144 509
330654 912207 525
902189 325119 525
981786 315687 525
284457 183629 443
117515 314391 443
770228 682992 504
144829 601691 470
19189 695815 509
22768 487355 449
451848 614061 470
845405 69839 525
290783 353613 441
915178 660540 525
44348 786408 509
128543 128509 300
574249 871763 525
116686 110165 349
327838 651626 509
332127 41778 443
438989 137107 449
471512 269626 449
57750 439074 449
858993 318641 525
117296 752355 509
602712 184281 470
117196 718161 509
858869 39143 525
116563 237722 443
67599 208382 383
434948 288293 449
67924 826756 509
695264 546282 509
704536 707377 504
491051 604239 470
509466 486036 426
209539 387018 443
359680 372313 410
854792 972522 507
933791 145505 525
856850 663146 525
110822 666490 509
933200 3967 525
534524 766717 509
134177 565652 470
74214 927611 525
715340 590028 509
287882 747393 509
537901 633946 509
239890 523149 470
189633 514048 470
759013 679377 504
138799 784376 509
739014 247290 509
488083 259711 449
958395 499642 525
694769 827886 504
582556 681868 509
251160 180726 443
